Name,WeightClassKg,BodyweightKg,Division,Sex,Best3SquatKg,Best3BenchKg,Best3DeadliftKg,TotalKg,Event,Equipment,Place
Dev Glenn,67.5,65.32,Open,M,187.5,,200,,SBD,Single-ply,DQ
Gary Thomas,75,,Open,M,195,110,195,500,SBD,Single-ply,1
Ken Leistner,75,,Open,M,137.5,110,200,447.5,SBD,Single-ply,2
Warren Sallade,100,,Open,M,305,175,287.5,767.5,SBD,Single-ply,1
Tom Sumner,110,,Open,M,295,182.5,250,727.5,SBD,Single-ply,1
Mike Zimmer,110,,Open,M,215,157.5,230,602.5,SBD,Single-ply,2
