Name,WeightClassKg,Division,Sex,Best3SquatKg,Best3BenchKg,Best3DeadliftKg,TotalKg,Event,Equipment,Place
Alex Galant,52,Masters 45-49,M,140,87.5,142.5,370,SBD,Single-ply,1
Freddie Higgins,56,Masters 40-44,M,182.5,120,192.5,495,SBD,Single-ply,1
Dennis Smith,56,Masters 60-64,M,135,80,160,375,SBD,Single-ply,1
Larry Christ,60,Masters 45-49,M,170,120.5,202.5,492.5,SBD,Single-ply,1
D. Stoval,67.5,Masters 45-49,M,147.5,107.5,175,430,SBD,Single-ply,2
K. Crouse,67.5,Masters 45-49,M,137.5,112.5,187.5,437.5,SBD,Single-ply,1
R. Nolan,67.5,Masters 65-69,M,102.5,67.5,147.5,317.5,SBD,Single-ply,1
Roy Mason,67.5,Masters 75-79,M,95,,,,SBD,Single-ply,DQ
Sam Pardue,75,Submasters 35-39,M,222.5,142.5,217.5,582.5,SBD,Single-ply,1
Wittenbach,75,Submasters 35-39,M,,122.5,,122.5,B,Single-ply,2
Sam Pardue,75,Submasters 35-39,M,,142.5,,142.5,B,Single-ply,1
C. Chestand,75,Masters 40-44,M,227.5,150,210,587.5,SBD,Single-ply,1
Jon Smoker,75,Masters 45-49,M,,,,,SBD,Single-ply,DQ
Leighninger,75,Masters 45-49,M,190,85,215,490,SBD,Single-ply,2
Charles Wodraska,75,Masters 45-49,M,262.5,142.5,222.5,627.5,SBD,Single-ply,1
D. Lindsley,75,Masters 50-54,M,195,102.5,190,487.5,SBD,Single-ply,1
Ben Brent,75,Masters 55-59,M,215,100,242.5,557.5,SBD,Single-ply,1
D. Crain,75,Masters 65-69,M,,127.5,,127.5,B,Single-ply,1
J. Williams,82.5,Masters 40-44,M,232.5,155,250,637.5,SBD,Single-ply,2
John Tyree,82.5,Masters 40-44,M,247.5,162.5,277.5,687.5,SBD,Single-ply,1
James Christin,82.5,Masters 45-49,M,,,,,SBD,Single-ply,DQ
Art Menton,82.5,Masters 45-49,M,185,130,197.5,512.5,SBD,Single-ply,3
M. Ford,82.5,Masters 45-49,M,250,110,272.5,632.5,SBD,Single-ply,2
Walter Thomas,82.5,Masters 45-49,M,305,187.5,305,797.5,SBD,Single-ply,1
F. Muliin,82.5,Masters 60-64,M,205,117.5,210,532.5,SBD,Single-ply,1
D. Boyer,82.5,Masters 65-69,M,140,95,182.5,417.5,SBD,Single-ply,1
Walter Lee,82.5,Masters 65-69,M,,140,,140,B,Single-ply,1
T. Holt,90,Masters 40-44,M,,,,,SBD,Single-ply,DQ
C. Smith,90,Masters 40-44,M,150,92.5,192.5,435,SBD,Single-ply,4
Joe Rizza,90,Masters 40-44,M,272.5,110,232.5,615,SBD,Single-ply,3
M. Brown,90,Masters 40-44,M,245,147.5,265,657.5,SBD,Single-ply,2
V. Elliott,90,Masters 40-44,M,280,162.5,260,702.5,SBD,Single-ply,1
C. Capulo,90,Masters 45-49,M,195,152.5,245,592.5,SBD,Single-ply,1
B. Roth,90,Masters 50-54,M,175,130,202.5,507.5,SBD,Single-ply,3
K. Fryer,90,Masters 50-54,M,210,140,227.5,577.5,SBD,Single-ply,2
Dan Hamblet,90,Masters 50-54,M,260,172.5,275,707.5,SBD,Single-ply,1
F. Simmonds,90,Masters 60-64,M,160,90,200,450,SBD,Single-ply,1
David Bourland,90,Masters 65-69,M,170,95,190,455,SBD,Single-ply,1
C. Lee Sr,90,Masters 70-74,M,150,112.5,182.5,445,SBD,Single-ply,1
Joe Kurpiel,90,Masters 80-84,M,120,80,160,360,SBD,Single-ply,1
M. Carr,100,Submasters 35-39,M,240,142.5,247.5,630,SBD,Single-ply,3
K. Jordan,100,Submasters 35-39,M,252.5,152.5,227.5,632.5,SBD,Single-ply,2
C. Garcia,100,Submasters 35-39,M,322.5,137.5,287.5,747.5,SBD,Single-ply,1
James Cash,100,Masters 45-49,M,282.5,185,322.5,790,SBD,Single-ply,1
J. Patin,100,Masters 45-49,M,172.5,145,200,517.5,SBD,Single-ply,5
D. O'Dell,100,Masters 45-49,M,205,137.5,205,547.5,SBD,Single-ply,4
Richard Herrick,100,Masters 45-49,M,217.5,125,227.5,570,SBD,Single-ply,3
Washington,100,Masters 45-49,M,292.5,165,307.5,765,SBD,Single-ply,2
R. Trudeau,100,Masters 45-49,M,,130,,130,B,Single-ply,2
J. Patin,100,Masters 45-49,M,,145,,145,B,Single-ply,1
W. Low,100,Masters 50-54,M,157.5,105,210,472.5,SBD,Single-ply,3
R. Haugen,100,Masters 50-54,M,142.5,150,210,502.5,SBD,Single-ply,2
Rüdiger Pfeiffer,100,Masters 50-54,M,250,160,255,665,SBD,Single-ply,1
L. Gibson,100,Masters 55-59,M,245,157.5,230,632.5,SBD,Single-ply,2
Jerry Engelbert,100,Masters 55-59,M,257.5,132.5,295,685,SBD,Single-ply,1
R. Dupre,100,Masters 60-64,M,167.5,87.5,195,450,SBD,Single-ply,1
Rex Monahan,100,Masters 65-69,M,122.5,77.5,160,360,SBD,Single-ply,1
Ernie Nagy,100,Masters 70-74,M,100,142.5,150,392.5,SBD,Single-ply,1
G. Blackman,110,Masters 40-44,M,185,140,190,515,SBD,Single-ply,3
J. Beckham,110,Masters 40-44,M,232.5,157.5,237.5,627.5,SBD,Single-ply,2
Marty Gallagher,110,Masters 40-44,M,285,170,290,745,SBD,Single-ply,1
J. Beckham,110,Masters 40-44,M,,157.5,,157.5,B,Single-ply,1
C. Ahhaitty,110,Masters 45-49,M,,,,,SBD,Single-ply,DQ
A. Jordan,110,Masters 45-49,M,,162.5,,162.5,B,Single-ply,1
Miller Edwards,110,Masters 50-54,M,285,170,272.5,727.5,SBD,Single-ply,2
Robert Pleticha,110,Masters 50-54,M,267.5,170,292.5,730,SBD,Single-ply,1
W. Bunch,110,Masters 55-59,M,190,125,205,520,SBD,Single-ply,1
G. Byrne,110,Masters 60-64,M,127.5,75,150,352.5,SBD,Single-ply,1
R. Henshaw,125,Submasters 35-39,M,,187.5,,187.5,B,Single-ply,1
Gil Thompson,125,Masters 40-44,M,345,255,300,900,SBD,Single-ply,1
N. Bolich,125,Masters 45-49,M,272.5,182.5,250,705,SBD,Single-ply,2
Danny Burton,125,Masters 45-49,M,340,155,287.5,782.5,SBD,Single-ply,1
R. Woodson,125,Masters 50-54,M,185,150,185,520,SBD,Single-ply,2
C. Batten,125,Masters 50-54,M,255,207.5,250,712.5,SBD,Single-ply,1
Hal Hudson,125,Masters 55-59,M,222.5,137.5,242.5,602.5,SBD,Single-ply,1
D. Schaan,125,Masters 60-64,M,,,,,SBD,Single-ply,DQ
B. Taylor,125+,Masters 40-44,M,300,187.5,227.5,715,SBD,Single-ply,2
Mike Mostafa,125+,Masters 40-44,M,290,195,285,770,SBD,Single-ply,1
M. Snowden,125+,Masters 45-49,M,240,140,250,630,SBD,Single-ply,3
K. Bivans,125+,Masters 45-49,M,282.5,182.5,245,710,SBD,Single-ply,2
Brian Meek,125+,Masters 45-49,M,325,220,305,850,SBD,Single-ply,1
Ann Leverett,48,Masters 40-44,F,120,83,152.5,355.5,SBD,Single-ply,1
N. Smith,48,Masters 55-59,F,95,47.5,107.5,250,SBD,Single-ply,1
Ginger Lord,52,Masters 40-44,F,100,62.5,125,287.5,SBD,Single-ply,1
P. Moten,52,Masters 45-49,F,,50,,50,B,Single-ply,1
A. Comber,,Masters 60-64,F,40,,,,SBD,Single-ply,DQ
P. Chidester,56,Masters 40-44,F,95,50,112.5,257.5,SBD,Single-ply,1
Teresa DeVoltz,56,Submasters 35-39,F,132.5,82.5,190,405,SBD,Single-ply,1
J. Burchett,56,Masters 55-59,F,112.5,60,130,302.5,SBD,Single-ply,1
Gretchen Buerki,82.5,Masters 50-54,F,,,,,SBD,Single-ply,DQ
