Name,Division,Sex,WeightClassKg,Best3SquatKg,Best3BenchKg,Best3DeadliftKg,TotalKg,Event,Equipment,Place
Trish Muldrock,Masters 3,F,47,77.5,64,123,264.5,SBD,Raw,1
Ali Gascoine,Masters 2,F,52,95,55,152.5,302.5,SBD,Raw,1
Natalie Jarman,Masters 1,F,63,80,47.5,100,227.5,SBD,Raw,3
Lea Attenborough,Masters 1,F,63,117.5,65,142.5,325,SBD,Raw,1
Jo Tarlton,Masters 1,F,63,105,60,140,305,SBD,Raw,2
Margaret Lindsay,Masters 2,F,63,82.5,57.5,102.5,242.5,SBD,Raw,1
Janne Barrett,Masters 3,F,63,80,50,117.5,247.5,SBD,Raw,1
Jennifer Jeffery,Masters 3,F,72,75,50,112.5,237.5,SBD,Raw,2
Lesley Proctor,Masters 3,F,72,90,60,130,280,SBD,Raw,1
Rose Dermer,Masters 2,F,72,110,52.5,110,272.5,SBD,Raw,2
Marie Soffe,Masters 2,F,72,100,67.5,150,317.5,SBD,Raw,1
Jolie Davis,Masters 1,F,72,95,65,150,310,SBD,Raw,2
Tui Katene,Masters 1,F,72,135,87.5,150,372.5,SBD,Raw,1
Leanne Cameron,Masters 1,F,84,97.5,50,127.5,275,SBD,Raw,6
Maxine Karl,Masters 1,F,84,110,47.5,120,277.5,SBD,Raw,5
Phillipa Fischer,Masters 1,F,84,102.5,62.5,140,305,SBD,Raw,4
Leigh Matheson,Masters 1,F,84,115,72.5,155,342.5,SBD,Raw,3
Alice McKenzie,Masters 1,F,84,155,70,160,385,SBD,Raw,2
Jessica Hanara,Masters 1,F,84,145,92.5,180,417.5,SBD,Raw,1
Rachel Duggan,Masters 1,F,84+,130,70,145,345,SBD,Raw,2
Lisa Walford,Masters 1,F,84+,140,75,150,365,SBD,Raw,1
Alison Fitzmaurice,Masters 2,F,84+,160,97.5,150,407.5,SBD,Raw,1
Jacqui Swift,Juniors,F,52,90,68.5,115,273.5,SBD,Raw,2
Aiber Camplian,Juniors,F,52,115,60,120,295,SBD,Raw,1
Orla Harris,Juniors,F,57,117.5,77.5,117.5,312.7,SBD,Raw,1
Maddy Walker,Juniors,F,63,110,50,137.5,297.5,SBD,Raw,5
Robyn Hall,Juniors,F,63,107.5,62.5,137.5,307.5,SBD,Raw,4
Charlie Hemens,Juniors,F,63,117.5,70,145,332.5,SBD,Raw,3
Ciara Corrigan,Juniors,F,63,117.5,80,140,337.5,SBD,Raw,2
Amie Limbrick,Juniors,F,63,127.5,70,150,347.5,SBD,Raw,1
Jade Isbister,Juniors,F,72,95,60,130,285,SBD,Raw,4
Alisa Samountry,Juniors,F,72,120,65,160,345,SBD,Raw,3
Nesi Laukau,Juniors,F,72,140,75,160,375,SBD,Raw,2
Barbra Auva'a,Juniors,F,72,162.5,85.5,175,423,SBD,Raw,1
Johanna Smith,Juniors,F,84,117.5,60,142.5,320,SBD,Raw,4
Emma Takapi,Juniors,F,84,125,70,165,360,SBD,Raw,3
Xanthe Musgrave,Juniors,F,84,122.5,77.5,185,385,SBD,Raw,2
Siuea Cocker,Juniors,F,84,152.5,72.5,180,405,SBD,Raw,1
Sharon Vaitupu,Juniors,F,84+,170,65,200,435,SBD,Raw,1
Darshika Premkumar,Open,F,47,90,50,110,250,SBD,Raw,1
Danielle de Silva,Open,F,52,97.5,50,115,262.5,SBD,Raw,4
Linh Le,Open,F,52,115,52.5,115,282.5,SBD,Raw,3
Suzan Premji,Open,F,52,105,65,130,300,SBD,Raw,2
Megan Smith,Open,F,52,95,57.5,150,302.5,SBD,Raw,1
Ruth Knights,Open,F,57,90,47.5,145,282.5,SBD,Raw,7
Carolyne Read,Open,F,57,100,67.5,120,287.5,SBD,Raw,6
Edwine Clayton,Open,F,57,105,60,127.5,292.5,SBD,Raw,5
Siona Fernandes,Open,F,57,107.5,62.5,135,305,SBD,Raw,4
Michele Wilson,Open,F,57,117.5,60,130,307.5,SBD,Raw,3
Amanda Foulkes,Open,F,57,105,62.5,144,311.5,SBD,Raw,2
Shon Catherine,Open,F,57,117.5,67.5,142.5,327.5,SBD,Raw,1
Erin Feldman,Open,F,63,80,57.5,110,247.5,SBD,Raw,3
Elena De Goldi,Open,F,63,115,55,135,305,SBD,Raw,2
Katie Lin,Open,F,63,140,67.5,150,357.5,SBD,Raw,1
Jenna Beaumont,Open,F,72,97.5,62.5,112.5,272.5,SBD,Raw,10
Ashleigh Clarke,Open,F,72,97.5,57.5,120,275,SBD,Raw,9
Amanda O'Connor,Open,F,72,95,50,132.5,277.5,SBD,Raw,8
Yvanca Clarisse,Open,F,72,112.5,65,130,307.5,SBD,Raw,7
Rachel Loomans,Open,F,72,130,70,140,340,SBD,Raw,5
Soraya Engelken,Open,F,72,130,77.5,132.5,340,SBD,Raw,6
Cynthia List,Open,F,72,122.5,72.5,152.5,347.5,SBD,Raw,4
Te Pirutanga Jefferies,Open,F,72,132.5,67.5,162.5,362.5,SBD,Raw,3
Anna Thompson,Open,F,72,125,70,177.5,372.5,SBD,Raw,2
Nicole Stowers,Open,F,72,137.5,77.5,167.5,382.5,SBD,Raw,1
Hanna Nicholas,Open,F,72,,65,140,,SBD,Raw,DQ
Fiona Park,Open,F,84,95,72.5,155,322.5,SBD,Raw,7
Mel Webster,Open,F,84,117.5,70,165,352.5,SBD,Raw,5
Lyndal Thomas,Open,F,84,130,82.5,140,352.5,SBD,Raw,6
Michelle Welsh,Open,F,84,132.5,67.5,165,365,SBD,Raw,4
Amy Ferris,Open,F,84,137.5,67.5,167.5,372.5,SBD,Raw,3
Ashley Lester,Open,F,84,145,110.5,157.5,413,SBD,Raw,2
Tasha Williams,Open,F,84,155,95,200,450,SBD,Raw,1
Emily Ide,Open,F,84+,135,65,155,355,SBD,Raw,9
Julie Stechmann,Open,F,84+,135,82.5,145,362.5,SBD,Raw,8
Aimee Christensen,Open,F,84+,145,67.5,157.5,370,SBD,Raw,7
Brydie Anderson,Open,F,84+,150,72.5,180,402.5,SBD,Raw,6
Ana de Joux,Open,F,84+,155,75,182.5,412.5,SBD,Raw,4
Katrina Barrett,Open,F,84+,162.5,92.5,157.5,412.5,SBD,Raw,5
Jennie Bell,Open,F,84+,162.5,87.5,185,435,SBD,Raw,3
Pandora Togasio,Open,F,84+,157.5,82.5,200,440,SBD,Raw,2
Riria Haria Ropata,Open,F,84+,184,87.5,212.5,484,SBD,Raw,1
Brendon Cronin,Masters 1,M,59,120,72.5,115,307.5,SBD,Raw,1
Andy Meek,Masters 2,M,66,135,67.5,185,387.5,SBD,Raw,1
Rene de Joux,Masters 1,M,83,170,92.5,200,462.5,SBD,Raw,1
Neil Andrews,Masters 2,M,83,155,100,210,465,SBD,Raw,3
Stephen King,Masters 2,M,83,205,95,215,515,SBD,Raw,2
Steve Barnes,Masters 2,M,83,185,122.5,215,522.5,SBD,Raw,1
David Forte,Masters 1,M,93,160,105,180,445,SBD,Raw,4
Simon Kelsell,Masters 1,M,93,200,132.5,227.5,560,SBD,Raw,3
Kieran Mischewski,Masters 1,M,93,190,125,252.5,567.5,SBD,Raw,2
Sani Sanileva,Masters 1,M,93,215,135,225,575,SBD,Raw,1
Lindsay McGavin,Masters 2,M,93,195,115,202.5,512.5,SBD,Raw,1
Roger Gedye,Masters 3,M,93,150,112.5,220,482.5,SBD,Raw,2
Bryan Barrett,Masters 3,M,93,182.5,105,215,502.5,SBD,Raw,1
Les Laban,Masters 1,M,105,220,127.5,245,592.5,SBD,Raw,2
Jason Boyce,Masters 1,M,105,210,155,242.5,607.5,SBD,Raw,1
Ted Anderson,Masters 2,M,105,190,127.5,200,517.5,SBD,Raw,3
Chad Anderson,Masters 2,M,105,187.5,125,225,537.5,SBD,Raw,2
Graeme Boyce,Masters 2,M,105,210,150,220,580,SBD,Raw,1
Ian Dennis,Masters 1,M,120,205,150,220,575,SBD,Raw,1
Geoffrey Holmes,Masters 2,M,120+,220,120,238,578,SBD,Raw,2
Steve Lousich,Masters 2,M,120+,262.5,175,235,672.5,SBD,Raw,1
Bailey Cumming,Sub-Juniors,M,59,150,92.5,160,402.5,SBD,Raw,1
Cameron Hodges,Sub-Juniors,M,66,120,65,155,340,SBD,Raw,1
Taylor Blackler,Sub-Juniors,M,74,150,102.5,192.5,445,SBD,Raw,4
Liam Davidson,Sub-Juniors,M,74,170,105,200,475,SBD,Raw,2
Tyla Watt,Sub-Juniors,M,74,167.5,105,202.5,475,SBD,Raw,3
Harrison Pollard,Sub-Juniors,M,74,188,102.5,192.5,483,SBD,Raw,1
Sean Ford,Sub-Juniors,M,83,147.5,90,160,397.5,SBD,Raw,2
Vincent Capes,Sub-Juniors,M,83,190,112.5,200,502.5,SBD,Raw,1
Te Kahikatea Doherty,Sub-Juniors,M,120+,195,170,,,SBD,Raw,DQ
Brendon Chaithoo,Juniors,M,53,140,95.5,170,405.5,SBD,Raw,1
Tu Dinh,Juniors,M,66,137.5,75,180,392.5,SBD,Raw,4
Andy Shun,Juniors,M,66,140,100,175,415,SBD,Raw,3
Jeremy Fraser,Juniors,M,66,172.5,97.5,210.5,480.5,SBD,Raw,2
Wahhaaj Bhaijee,Juniors,M,66,180,110,210,500,SBD,Raw,1
Josh Cooke,Juniors,M,74,125,90,142.5,357.5,SBD,Raw,7
Sebastian Ashburn,Juniors,M,74,140,105,190,435,SBD,Raw,6
Aaron Harrison,Juniors,M,74,157.5,97.5,182.5,437.5,SBD,Raw,5
Jayden Pinfold,Juniors,M,74,205,125,207.5,537.5,SBD,Raw,4
Terence Ang,Juniors,M,74,195,120,235,550,SBD,Raw,3
Kane McKenzie,Juniors,M,74,197.5,130,232.5,560,SBD,Raw,2
Jak Tan,Juniors,M,74,215.5,120,235,570.5,SBD,Raw,1
Jacob Hoekstra,Juniors,M,83,155,85,207.5,447.5,SBD,Raw,6
Doug Roake,Juniors,M,83,187.5,90,220,497.5,SBD,Raw,5
Timothy Dougan,Juniors,M,83,180,100,220,500,SBD,Raw,4
Dion Warren,Juniors,M,83,185,115,232.5,532.5,SBD,Raw,3
Dean Price,Juniors,M,83,247.5,175,257.5,680,SBD,Raw,2
Jamie King,Juniors,M,83,255,145,297.5,697.5,SBD,Raw,1
Michael Brew,Juniors,M,93,150,95,205,450,SBD,Raw,10
Thomas Miller #2,Juniors,M,93,172.5,110,192.5,475,SBD,Raw,9
Sam Tilby,Juniors,M,93,190,137.5,210,537.5,SBD,Raw,8
Thomas Grenfell,Juniors,M,93,205,125,242.5,572.5,SBD,Raw,7
Keith Miller,Juniors,M,93,210,132.5,250,592.5,SBD,Raw,6
Rory Lynch,Juniors,M,93,202.5,147.5,252.5,602.5,SBD,Raw,5
Thomas Botica,Juniors,M,93,222.5,127.5,255,605,SBD,Raw,4
Haris Butt,Juniors,M,93,240,140,265,645,SBD,Raw,1
Ben Hanara,Juniors,M,93,230,155,260,645,SBD,Raw,2
Tom Hart,Juniors,M,93,252.5,132.5,260,645,SBD,Raw,3
Aden Zhu,Juniors,M,105,190,105,190,485,SBD,Raw,8
Anton Kridle,Juniors,M,105,160,140,210,510,SBD,Raw,7
Brian Gonzales,Juniors,M,105,202.5,117.5,210,530,SBD,Raw,6
Liam Locke,Juniors,M,105,205,115,222.5,542.5,SBD,Raw,5
Louis Zabala,Juniors,M,105,195,125,230,550,SBD,Raw,4
Finau Laurenson,Juniors,M,105,220,140,245,605,SBD,Raw,3
Samuel Reihana,Juniors,M,105,210,145,252.5,607.5,SBD,Raw,2
Callum Pumfleet,Juniors,M,105,240,160,270,670,SBD,Raw,1
Leethan Tau,Juniors,M,120,215,150,240,605,SBD,Raw,3
Jivan Saimone,Juniors,M,120,240,190,240,670,SBD,Raw,2
Byron Konia,Juniors,M,120,250,175,320,745,SBD,Raw,1
Lucas Mansell,Juniors,M,120+,280,155,282.5,717.5,SBD,Raw,2
Paxton Brown,Juniors,M,120+,300,180,320,800,SBD,Raw,1
Ryan Stewart,Open,M,59,87.5,72.5,140,300,SBD,Raw,1
Harry Bhandal,Open,M,66,85,62.5,110,257.5,SBD,Raw,3
Brandon Twigley,Open,M,66,160,120,190,470,SBD,Raw,2
Chris Tan,Open,M,66,210,127.5,250,587.5,SBD,Raw,1
Adrian Loo,Open,M,74,150,90,200,440,SBD,Raw,6
Steven Shi,Open,M,74,185,112.5,205,502.5,SBD,Raw,5
Dylan Lewis,Open,M,74,165,107.5,232.5,505,SBD,Raw,4
Tomas Coleman,Open,M,74,172.5,115,222.5,510,SBD,Raw,3
Kavwa Sichone,Open,M,74,175,140,210,525,SBD,Raw,2
Joel Larter,Open,M,74,217.5,130,230,577.5,SBD,Raw,1
Kenneth Hawes,Open,M,83,170,102.5,180,452.5,SBD,Raw,6
Matthew Richards #2,Open,M,83,160,110,185,455,SBD,Raw,5
David Cooper #1,Open,M,83,185,115,250,550,SBD,Raw,4
Jonathan Christie,Open,M,83,200,115,242.5,557.5,SBD,Raw,3
Alex Orwin,Open,M,83,220,140,250,610,SBD,Raw,2
Wenshuo Huang,Open,M,83,235,150,245,630,SBD,Raw,1
Joshua Tukua,Open,M,83,,155,300,,SBD,Raw,DQ
Dean Williams,Open,M,83,180,130,,,SBD,Raw,DQ
David Mohn,Open,M,93,195,100,230,525,SBD,Raw,13
Ryan Lester,Open,M,93,197.5,110,227.5,535,SBD,Raw,12
Ken McLean,Open,M,93,192.5,130,230,552.5,SBD,Raw,11
Steve Lamb,Open,M,93,215,115,225,555,SBD,Raw,10
Ricky Cunningham,Open,M,93,207.5,127.5,225,560,SBD,Raw,8
James Schroder,Open,M,93,185,130,245,560,SBD,Raw,9
Phindai Gapara,Open,M,93,212.5,132.5,255,600,SBD,Raw,6
Andrew Pichardo,Open,M,93,207.5,132.5,260,600,SBD,Raw,7
Jack Barr,Open,M,93,210,142.5,252.5,605,SBD,Raw,5
Mark Vanner,Open,M,93,235,140,245,620,SBD,Raw,4
Leigh Stevens,Open,M,93,230,155,240,625,SBD,Raw,3
Chris Bennett,Open,M,93,200,160,285,645,SBD,Raw,2
Timothy McEwan,Open,M,93,273,168,300,741,SBD,Raw,1
Caleb Robinson,Open,M,93,,92.5,225,,SBD,Raw,DQ
Nathan Preece,Open,M,105,155,120,210,485,SBD,Raw,9
Wayne Borrows,Open,M,105,195,140,240,575,SBD,Raw,8
Herman Ah Kiong,Open,M,105,220,145,260,625,SBD,Raw,6
Shane Drosdzak,Open,M,105,225,147.5,252.5,625,SBD,Raw,7
Lee Abbott,Open,M,105,240,140,275,655,SBD,Raw,5
Josh Campbell,Open,M,105,245,150,270,665,SBD,Raw,4
Ben Scott #2,Open,M,105,242.5,157.5,272.5,672.5,SBD,Raw,3
Hamish Tahana,Open,M,105,232.5,172.5,280,685,SBD,Raw,2
Andy Mahon,Open,M,105,302.5,160,302.5,765,SBD,Raw,1
Valery Drozdoy,Open,M,120,182.5,112.5,225,520,SBD,Raw,8
Jason Anderson,Open,M,120,205,125,245,575,SBD,Raw,7
Dennyn Kara,Open,M,120,220,150,240,610,SBD,Raw,6
Kurt Docherty,Open,M,120,215,145,280,640,SBD,Raw,5
Angus Blair,Open,M,120,235,152.5,280,667.5,SBD,Raw,4
Jing Seth,Open,M,120,230,157.5,282.5,670,SBD,Raw,3
Tyler Simpson,Open,M,120,230,170,280,680,SBD,Raw,2
Stanley Cocker,Open,M,120,292.5,160,300,752.5,SBD,Raw,1
James Mathieson,Open,M,120+,260,140,250,650,SBD,Raw,5
Turanga Rongo,Open,M,120+,230,165,272.5,667.5,SBD,Raw,4
Leonard Merito,Open,M,120+,252.5,182.5,272.5,707.5,SBD,Raw,3
Justin Lawson,Open,M,120+,320,195,312.5,827.5,SBD,Raw,2
Joseph Whittaker,Open,M,120+,340.5,227.5,332.5,900.5,SBD,Raw,1
