JapaneseName,Name,BirthYear,Sex,BodyweightKg,WeightClassKg,Squat1Kg,Squat2Kg,Squat3Kg,Best3SquatKg,Bench1Kg,Bench2Kg,Bench3Kg,Best3BenchKg,Deadlift1Kg,Deadlift2Kg,Deadlift3Kg,Best3DeadliftKg,TotalKg,Team,Division,Place,Event,Equipment
福島 友佳子,Yukako Fukushima,1970,F,46.1,47,170,180,188,188,122.5,130,134,134,150,162.5,167.5,167.5,489.5,パワーハウス,Open,1,SBD,Single-ply
岡本 美樹,,1966,F,46.9,47,110,115,117.5,117.5,82.5,-87.5,-87.5,82.5,135,145,-150,145,345,リアルスイング,Open,2,SBD,Single-ply
菊地 雅,Miyabi Kikuchi,1998,F,46.5,47,120,-130,130,130,70,-80,-80,70,110,120,125,125,325,春日部共栄高校,Open,3,SBD,Single-ply
餘語 てるみ,,1969,F,46.45,47,95,107.5,-117.5,107.5,82.5,-85,-85,82.5,90,105,120,120,310,フジモトジム,Open,4,SBD,Single-ply
滝沢 嘉恵,Yoshie Takizawa,1957,F,44.95,47,100,105,110,110,70,75,-77.5,75,102.5,110,115,115,300,パワーハウス,Open,5,SBD,Single-ply
酒巻 依子,Yoriko Sakamaki,1991,F,51.1,52,145,-157,157,157,97.5,105,108,108,145,158.5,160,160,425,ESQUATIR,Open,1,SBD,Single-ply
赤川 智子,Tomoko Akagawa,1984,F,51.7,52,125,135,145,145,-87.5,92.5,95,95,115,127.5,135,135,375,スーパーパワー アサマトレーニングクラブ,Open,2,SBD,Single-ply
澤山 あおい,Aoi Sawayama,1999,F,51.05,52,145,155,-157.5,155,75,77.5,80,80,125,-135,135,135,370,常総学院高校,Open,3,SBD,Single-ply
寺村 美香,Mika Teramura,1962,F,51.3,52,-140,140,-157.5,140,-82.5,82.5,-92.5,82.5,125,135,-152.5,135,357.5,江別パワーリフティング協会,Open,4,SBD,Single-ply
磯田 あかね,,1970,F,51.55,52,115,125,130,130,85,-90,-90,85,130,140,-147.5,140,355,スーパーパワー アサマトレーニングクラブ,Open,5,SBD,Single-ply
南澤 さより,,1990,F,50.65,52,137.5,-142.5,-142.5,137.5,60,65,-70,65,135,-140,-140,135,337.5,個人,Open,6,SBD,Single-ply
田中 彰子,,1964,F,51.65,52,120,130,-135,130,65,70,72.5,72.5,115,125,-130,125,327.5,個人,Open,7,SBD,Single-ply
善本 弥生,,1965,F,51.4,52,-115,120,-130,120,62.5,-67.5,-67.5,62.5,100,110,-120,110,292.5,フジモトジム,Open,8,SBD,Single-ply
加藤 幸枝,Yukie Kato,1974,F,56.65,57,152.5,-162.5,162.5,162.5,90,-95,95,95,165,-175,175,175,432.5,TXP,Open,1,SBD,Single-ply
渕上 宏恵,,1968,F,56.25,57,147.5,-160,160,160,85,-90,-90,85,127.5,140,145,145,390,スーパーパワー アサマトレーニングクラブ,Open,2,SBD,Single-ply
三浦 恵美子,,1974,F,55.65,57,115,125,132.5,132.5,-87.5,87.5,-92.5,87.5,130,140,150,150,370,スーパーパワー アサマトレーニングクラブ,Open,3,SBD,Single-ply
大森 聖子,Seiko Omori,1951,F,55.4,57,137.5,147.5,155.5,155.5,-72.5,72.5,-77.5,72.5,115,122.5,127.5,127.5,355.5,小田原アリーナ,Open,4,SBD,Single-ply
木村 初子,Hatsuko Kimura,1965,F,53.65,57,110,125,-140,125,55,-60,62.5,62.5,150,165,-172.5,165,352.5,スーパーパワー アサマトレーニングクラブ,Open,5,SBD,Single-ply
長谷川 真紀,,1966,F,55.35,57,117.5,122.5,125,125,70,75,-80,75,120,125,-127.5,125,325,パワーハウス,Open,6,SBD,Single-ply
赤澤 恋,,1999,F,56.05,57,112.5,120,-130,120,80,87.5,-95,87.5,100,110,-115,110,317.5,厚木商業高校,Open,7,SBD,Single-ply
山田 珠美,,1964,F,55.95,57,120,-130,130,130,60,65,-70,65,120,-125,-125,120,315,リアルスイング,Open,8,SBD,Single-ply
北村 真由美,Mayumi Kitamura,1967,F,62.75,63,192.5,-208.5,-208.5,192.5,160,167.5,-171,167.5,182.5,-192.5,-192.5,182.5,542.5,スーパーパワー アサマトレーニングクラブ,Open,1,SBD,Single-ply
寺原 万留々,Maruru Terahara,1993,F,62.4,63,180,-190,-200,180,105,112.5,-120.5,112.5,160,-167.5,-167.5,160,452.5,個人,Open,2,SBD,Single-ply
林 久子,Hisako Hayashi,1951,F,61.7,63,140,-150,-150,140,80,85,90,90,135,145,-151,145,375,雷神ファクトリー,Open,3,SBD,Single-ply
林 和美,,1963,F,62.45,63,130,140,-152.5,140,85,90,-92.5,90,132.5,142.5,-147.5,142.5,372.5,パワーハウス,Open,4,SBD,Single-ply
工藤 智恵子,,1968,F,61.8,63,125,130,-135,130,90,95,-100,95,110,115,117.5,117.5,342.5,マッスルプロダクション,Open,5,SBD,Single-ply
来栖 彩,,1998,F,57.05,63,-120,120,130,130,-70,70,-77.5,70,100,127.5,-135,127.5,327.5,常総学院高校,Open,6,SBD,Single-ply
野間口 志保,,1973,F,65.95,72,170,182.5,-190,182.5,-80,82.5,90,90,155,167.5,180,180,452.5,パワーハウス,Open,1,SBD,Single-ply
照屋 利恵,Rie Teruya,1975,F,69.45,72,150,-160,-160,150,120,130,-132.5,130,130,140,145,145,425,POWERSPORT,Open,2,SBD,Single-ply
鈴木 恭子,,1977,F,66.05,72,135,145,-155,145,-90,-90,92.5,92.5,130,140,-145,140,377.5,スーパーパワー アサマトレーニングクラブ,Open,3,SBD,Single-ply
佐竹 優典,Yusuke Satake,1997,M,58.85,59,235,-245,245,245,140,150,157.5,157.5,215,230,-245.5,230,632.5,青山学院大学,Open,1,SBD,Single-ply
竹花 真人,Masato Takehana,1988,M,58.8,59,215,222.5,227.5,227.5,-185,185,-191,185,205,212.5,-220,212.5,625,パワーハウス,Open,2,SBD,Single-ply
笹倉 伯文,Michifumi Sasakura,1978,M,58.2,59,215,230,-240,230,-170,-170,170,170,220,-232.5,-232.5,220,620,雷神ファクトリー,Open,3,SBD,Single-ply
水野 貴章,Takaaki Mizuno,1968,M,58.45,59,205,212.5,217.5,217.5,170,-177.5,177.5,177.5,210,-222.5,-222.5,210,605,ゴールドジム成田千葉,Open,4,SBD,Single-ply
三河 涼,Ryo Mikawa,1987,M,58.55,59,235,250,-255,250,-150,-150,150,150,180,190,-207.5,190,590,スーパーパワー アサマトレーニングクラブ,Open,5,SBD,Single-ply
白石 匡,,1980,M,57.65,59,200,-210,210,210,142.5,150,152.5,152.5,210,217.5,222.5,222.5,585,KsGYM,Open,6,SBD,Single-ply
久保 元人,Motohito Kubo,1990,M,58.2,59,200,210,220,220,110,115,120,120,-235,235,-250,235,575,阪南大学ウエイトトレーニング部OB会,Open,7,SBD,Single-ply
村田 元輝,Motoki Murata,1997,M,57.65,59,175,185,200,200,170,-187.5,-187.5,170,175,200,-210,200,570,KsGYM横浜,Open,8,SBD,Single-ply
伊差川 浩之,Hiroyuki Isagawa,1953,M,56.8,59,80,100,120,120,145,150,-155,150,-120,120,-150,120,390,POWERSPORT,Open,9,SBD,Single-ply
佐藤 義宏,Yoshihiro Sato,1982,M,65.9,66,255,265,272.5,272.5,210,-220.5,-220.5,210,240,247.5,-250,247.5,730,速太郎道場,Open,1,SBD,Single-ply
鈴木 豪,Go Suzuki,1994,M,65.6,66,245,-252.5,252.5,252.5,175,182.5,187.5,187.5,250,260,270,270,710,ESQUATIR,Open,2,SBD,Single-ply
木内 陽介,Yosuke Kiuchi,1996,M,65.8,66,250,260,270,270,150,162.5,-170,162.5,250,265,-278,265,697.5,青山学院大学,Open,3,SBD,Single-ply
瑞慶覧 勇輝,,1988,M,65.3,66,220,230,-237.5,230,180,-190,190,190,220,-230,230,230,650,POWERSPORT,Open,4,SBD,Single-ply
飯村 貴弘,,1991,M,65.45,66,-235,235,-247.5,235,172.5,-175,-175,172.5,205,220,-235,220,627.5,パワーハウスつくば,Open,5,SBD,Single-ply
高橋 雅之,Masayuki Takahashi,1960,M,65.8,66,225,237.5,243,243,162.5,-175,-175,162.5,185,195,205,205,610.5,スーパーパワーアサマトレーニングクラブ,Open,6,SBD,Single-ply
渡部 大輔,,1983,M,65.75,66,-210,210,-220,210,150,-160,-160,150,210,225,-235,225,585,筋トレ怪力塾,Open,7,SBD,Single-ply
角舘 武,,1981,M,65.9,66,195,215,230,230,155,-165,-165,155,185,195,-200,195,580,小田原アリーナ,Open,8,SBD,Single-ply
西村 直也,,1982,M,65.6,66,210,220,-230,220,140,145,-150,145,190,205,-212.5,205,570,雷神ファクトリー,Open,9,SBD,Single-ply
大石 圭太朗,,1981,M,65.7,66,-195,-195,195,195,-140,-140,-140,,,,,,,スーパーパワーアサマトレーニングクラブ,Open,DQ,SBD,Single-ply
大谷 憲弘,Norihiro Otani,1980,M,73.25,74,290,-300,-300,290,220,-231.5,231.5,231.5,240,250,-260,250,771.5,ESQUATIR,Open,1,SBD,Single-ply
濱田 展行,Nobuyuki Hamada,1969,M,73.25,74,290,300,306,306,215,-225,-225,215,240,-242.5,-260,240,761,個人,Open,2,SBD,Single-ply
本島 大稔,,1975,M,73.3,74,260,275,-280,275,195,200,205,205,235,245,-252.5,245,725,パワーハウスつくば,Open,3,SBD,Single-ply
奥谷 元哉,Motoya Okutani,1980,M,73.95,74,250,-255,-255,250,220,-225,-225,220,230,247.5,-257.5,247.5,717.5,K'S GYM,Open,4,SBD,Single-ply
山本 航平,,1991,M,73.65,74,245,260,270,270,175,-190,-190,175,230,250,-255,250,695,個人,Open,5,SBD,Single-ply
竹内 詩人,,1985,M,73.45,74,230,245,-255,245,162.5,170,-175,170,230,245,-250,245,660,個人,Open,6,SBD,Single-ply
細谷 一成,,1978,M,73.65,74,210,220,-230,220,210,-217.5,217.5,217.5,210,220,-230,220,657.5,スーパーパワーアサマトレーニングクラブ,Open,7,SBD,Single-ply
梶山 寛之,,1981,M,73.4,74,-235,-235,-235,,170,-180,180,180,220,235,-240,235,,ESQUATIR,Open,DQ,SBD,Single-ply
池上 宏樹,Hiroki Ikegami,1991,M,73.9,74,-275,-275,-275,,,,,,,,,,,TXP,Open,DQ,SBD,Single-ply
小早川 渉,Wataru Kobayakawa,1975,M,82.6,83,-280,290,305,305,215,-222.5,222.5,222.5,270,285,-301,285,812.5,速太郎道場,Open,1,SBD,Single-ply
鈴木 喜稀,,1993,M,82.75,83,290,310,315.5,315.5,190,200,207.5,207.5,260,275,-290.5,275,798,小田原アリーナ,Open,2,SBD,Single-ply
荒川 大介,Daisuke Arakawa,1979,M,80.95,83,237.5,250,260,260,180,190,200,200,242.5,252.5,255,255,715,ゴールドジムバーベルクラブ,Open,3,SBD,Single-ply
吉川 望,Nozomu Yoshikawa,1987,M,82.1,83,230,240,245,245,220,-227.5,232.5,232.5,225,235,237.5,237.5,715,個人,Open,4,SBD,Single-ply
嶋田 友則,,1979,M,81.65,83,-240,-240,240,240,175,180,185,185,235,245,250,250,675,ESQUATIR,Open,5,SBD,Single-ply
荒木 幸輔,,1983,M,79.05,83,230,-240,-240,230,162.5,170,-175,170,240,255,-270,255,655,ESQUATIR,Open,6,SBD,Single-ply
久保 匡平,Kyohei Kubo,1988,M,92.6,93,320,-340,-340,320,225,240,255,255,225,-240,240,240,815,パワーハウス,Open,1,SBD,Single-ply
福島 和文,,1966,M,91.95,93,272.5,285,-295,285,185,192.5,197.5,197.5,250,270,280,280,762.5,パワーハウス,Open,2,SBD,Single-ply
伊藤 禎浩,,1969,M,92,93,-260,-262.5,265,265,210,220,225,225,235,242.5,-245,242.5,732.5,個人,Open,3,SBD,Single-ply
蓑輪 優,,1974,M,92.55,93,252.5,265,270,270,-187.5,190,200,200,245,260,-265,260,730,速太郎道場,Open,4,SBD,Single-ply
小川 光寿,,1971,M,92.05,93,245,265,272.5,272.5,190,207.5,217.5,217.5,220,235,-245,235,725,竹田運輸倉庫㈱,Open,5,SBD,Single-ply
塩田 宗廣,,1977,M,89.6,93,260,-275,-277.5,260,170,175,-177.5,175,230,245,252.5,252.5,687.5,グッドコンディション,Open,6,SBD,Single-ply
淺間 成敏,,1959,M,91.6,93,260,272.5,-280,272.5,180,-185,-185,180,220,230,235,235,687.5,スーパーパワーアサマトレーニングクラブ,Open,7,SBD,Single-ply
阿久津 貴史,Takahito Akutsu,1983,M,102.25,105,320,332.5,345,345,250,260,265,265,270,285,-310,285,895,TXP,Open,1,SBD,Single-ply
柴田 道郎,Michio Shibata,1979,M,104.5,105,290,305,312.5,312.5,260,-275,-292.5,260,245,272.5,-280,272.5,845,team力姫石川,Open,2,SBD,Single-ply
幸喜 輝明,,1981,M,98.8,105,290,310,-320,310,200,210,215,215,220,235,250,250,775,パワーハウス赤穂,Open,3,SBD,Single-ply
堀口 耀介,Yosuke Horiguchi,1993,M,95.8,105,290,310,320,320,270,282.5,291,291,100,140,-207.5,140,751,TXP,Open,4,SBD,Single-ply
佐野 誓建,Seiken Sano,1995,M,110.05,120,300,320,-340.5,320,190,207.5,210,210,280,292.5,-300.5,292.5,822.5,京都学園大学,Open,1,SBD,Single-ply
辻見 直樹,,1964,M,118.1,120,280,-292.5,-292.5,280,225,235,-240.5,235,210,-220,-220,210,725,スーパーパワーアサマトレーニングクラブ,Open,2,SBD,Single-ply
伊藤 永太,Eita Ito,1995,M,141.15,120+,280,310,320,320,215,-225,-225,215,270,290,-300,290,825,筋トレ怪力塾,Open,1,SBD,Single-ply
餘語 てるみ,,1969,F,46.45,47,95,107.5,-117.5,107.5,82.5,-85,-85,82.5,90,105,120,120,310,フジモトジム,Masters 1,1,SBD,Single-ply
滝沢 嘉恵,Yoshie Takizawa,1957,F,44.95,47,100,105,110,110,70,75,-77.5,75,102.5,110,115,115,300,パワーハウス,Masters 2,1,SBD,Single-ply
寺村 美香,Mika Teramura,1962,F,51.3,52,-140,140,-157.5,140,-82.5,82.5,-92.5,82.5,125,135,-152.5,135,357.5,江別パワーリフティング協会,Masters 2,1,SBD,Single-ply
磯田 あかね,,1970,F,51.55,52,115,125,130,130,85,-90,-90,85,130,140,-147.5,140,355,スーパーパワー アサマトレーニングクラブ,Masters 1,1,SBD,Single-ply
田中 彰子,,1964,F,51.65,52,120,130,-135,130,65,70,72.5,72.5,115,125,-130,125,327.5,個人,Masters 2,2,SBD,Single-ply
善本 弥生,,1965,F,51.4,52,-115,120,-130,120,62.5,-67.5,-67.5,62.5,100,110,-120,110,292.5,フジモトジム,Masters 2,3,SBD,Single-ply
原田 惠,,1960,F,50,52,92.5,-100,100,100,65,70,72.5,72.5,92.5,97.5,102.5,102.5,275,ノーリミッツ,Masters 2,4,SBD,Single-ply
柳沢 由紀子,,1967,F,51.4,52,90,100,110,110,52.5,55,57.5,57.5,90,100,-105,100,267.5,TXP,Masters 1,2,SBD,Single-ply
加藤 幸枝,Yukie Kato,1974,F,56.65,57,152.5,-162.5,162.5,162.5,90,-95,95,95,165,-175,175,175,432.5,TXP,Masters 1,1,SBD,Single-ply
渕上 宏恵,,1968,F,56.25,57,147.5,-160,160,160,85,-90,-90,85,127.5,140,145,145,390,スーパーパワー アサマトレーニングクラブ,Masters 1,2,SBD,Single-ply
三浦 恵美子,,1974,F,55.65,57,115,125,132.5,132.5,-87.5,87.5,-92.5,87.5,130,140,150,150,370,スーパーパワー アサマトレーニングクラブ,Masters 1,3,SBD,Single-ply
大森 聖子,Seiko Omori,1951,F,55.4,57,137.5,147.5,155.5,155.5,-72.5,72.5,-77.5,72.5,115,122.5,127.5,127.5,355.5,小田原アリーナ,Masters 3,1,SBD,Single-ply
木村 初子,Hatsuko Kimura,1951,F,53.65,57,110,125,-140,125,55,-60,62.5,62.5,150,165,-172.5,165,352.5,スーパーパワー アサマトレーニングクラブ,Masters 3,2,SBD,Single-ply
山田 珠美,,1964,F,55.95,57,120,-130,130,130,60,65,-70,65,120,-125,-125,120,315,リアルスイング,Masters 2,1,SBD,Single-ply
平野 豊美,Toyomi Hirano,1950,F,55.2,57,95,100,105,105,47.5,50,52.5,52.5,95,100,105,105,262.5,東名アスレチック,Masters 3,3,SBD,Single-ply
北村 真由美,Mayumi Kitamura,1967,F,62.75,63,192.5,-208.5,-208.5,192.5,160,167.5,-171,167.5,182.5,-192.5,-192.5,182.5,542.5,スーパーパワー アサマトレーニングクラブ,Masters 1,1,SBD,Single-ply
林 久子,Hisako Hayashi,1951,F,61.7,63,140,-150,-150,140,80,85,90,90,135,145,-151,145,375,雷神ファクトリー,Masters 3,1,SBD,Single-ply
林 和美,,1963,F,62.45,63,130,140,-152.5,140,85,90,-92.5,90,132.5,142.5,-147.5,142.5,372.5,パワーハウス,Masters 2,1,SBD,Single-ply
工藤 智恵子,,1968,F,61.8,63,125,130,-135,130,90,95,-100,95,110,115,117.5,117.5,342.5,マッスルプロダクション,Masters 1,2,SBD,Single-ply
岡田 美佐,Misa Okada,1968,F,63.3,72,-130,137.5,-142.5,137.5,-87.5,87.5,90,90,130,137.5,-142.5,137.5,365,岩崎ボディビルクラブ,Masters 1,1,SBD,Single-ply
鍋倉 由美子,,1962,F,67.4,72,115,125,135,135,70,75,78,78,125,130,132.5,132.5,345.5,スパーパワーアサマトレーニングクラブ,Masters 2,1,SBD,Single-ply
後藤 啓恵,,1966,F,69.95,72,125,135,140,140,60,65,-70,65,115,125,-130,125,330,リアルスイング,Masters 2,2,SBD,Single-ply
加藤 みどり,Midori Kato,1972,F,88.45,84+,160,-175,175,175,85,90,95,95,155,165,-176,165,435,きくいけ整形外科,Masters 1,1,SBD,Single-ply
水野 貴章,Takaaki Mizuno,1968,M,58.45,59,205,212.5,217.5,217.5,170,-177.5,177.5,177.5,210,-222.5,-222.5,210,605,ゴールドジム成田千葉,Masters 1,1,SBD,Single-ply
吉田 雅巳,,1957,M,58.9,59,155,165,170,170,105,110,112.5,112.5,170,180,185,185,467.5,個人,Masters 2,1,SBD,Single-ply
山口 和久,,1960,M,57.6,59,135,145,-147.5,145,102.5,107.5,110,110,185,200,-212.5,200,455,トレーニングジムゼロイン,Masters 2,2,SBD,Single-ply
谷内 政宏,,1948,M,56.9,59,140,150,-160,150,90,95,97.5,97.5,190,-200,,190,437.5,高岡ＴＣ,Masters 3,1,SBD,Single-ply
浦野 雅彦,,1959,M,58.7,59,150,155,160,160,97.5,102.5,105,105,150,160,167.5,167.5,432.5,フジモトジム,Masters 2,3,SBD,Single-ply
前川 聖司,,1968,M,58.9,59,140,150,-160,150,90,-95,-95,90,145,-155,155,155,395,雷神ファクトリー,Masters 1,2,SBD,Single-ply
竹井 保満,Yasumitsu Takei,1928,M,57.05,59,85,100,105,105,60,65,70,70,80,90,100,100,275,烈剛河内,Masters 4,1,SBD,Single-ply
大城 新順,Shinjun Oshiro,1943,M,56.45,59,-90,-110,-110,-90,100,112.5,-120,112.5,115,125,,125,,個人,Masters 4,DQ,SBD,Single-ply
高橋 雅之,Masayuki Takahashi,1960,M,65.8,66,225,237.5,243,243,162.5,-175,-175,162.5,185,195,205,205,610.5,スーパーパワーアサマトレーニングクラブ,Masters 2,1,SBD,Single-ply
山本 英嗣,,1973,M,65.4,66,-180,180,200,200,160,-170,-183,160,170,180,190,190,550,個人,Masters 1,1,SBD,Single-ply
中村 英明,,1960,M,66,66,160,170,175,175,130,135,-137.5,135,160,170,-175,170,480,個人,Masters 2,2,SBD,Single-ply
善本 光彦,,1965,M,65.85,66,-165,175,-180,175,112.5,117.5,-120,117.5,160,170,180,180,472.5,フジモトジム,Masters 2,3,SBD,Single-ply
丸本 秀敏,Hidetoshi Marumoto,1947,M,63.45,66,170,200,-210,200,-80,90,-100,90,150,170,-180,170,460,個人,Masters 3,1,SBD,Single-ply
濱田 展行,Nobuyuki Hamada,1969,M,73.25,74,290,300,306,306,215,-225,-225,215,240,-242.5,-260,240,761,個人,Masters 1,1,SBD,Single-ply
谷口 晃一,,1960,M,73.15,74,-207.5,207.5,-215,207.5,147.5,152.5,160,160,-215,215,-230,215,582.5,個人,Masters 2,1,SBD,Single-ply
寺門 浩之,,1960,M,69.75,74,195,210,-225,210,132.5,-140,-142.5,132.5,190,210,220,220,562.5,パワーハルクジム,Masters 2,2,SBD,Single-ply
相原 竜也,,1970,M,73.3,74,205,-215,-215,205,-135,-135,135,135,200,-210,-220,200,540,トレーニングジムゼロイン,Masters 1,2,SBD,Single-ply
瀧田 悟,,1947,M,72.8,74,200,-210,210,210,105,110,-115,110,190,-200,,190,510,高岡ＴＣ,Masters 3,1,SBD,Single-ply
大澤 充,Mitsuru Osawa,1941,M,71.95,74,160,-170,-170,160,107.5,110,112.5,112.5,150,160,170,170,442.5,ノーリミッツ,Masters 4,1,SBD,Single-ply
平井 敏雄,,1956,M,73.5,74,145,-165,-165,145,100,110,120,120,145,165,-180,165,430,個人,Masters 3,2,SBD,Single-ply
越野 貴史,,1974,M,81.9,83,240,-250,-255,240,175,185,190,190,215,230,240,240,670,マッスルプロダクション,Masters 1,1,SBD,Single-ply
山口 真人,,1963,M,82.95,83,220,240,250,250,135,150,168,168,182.5,222.5,-255.5,222.5,640.5,個人,Masters 2,1,SBD,Single-ply
北野 利雄,Toshio Kitano,1946,M,82.4,83,210,235,-245,235,150,-161,161,161,215,-235,-235,215,611,仙台市体育館PC,Masters 4,1,SBD,Single-ply
藤本 章夫,,1949,M,79.85,83,160,165,,165,110,135,140,140,190,200,,200,505,フジモトジム,Masters 3,1,SBD,Single-ply
森田 俊介,,1967,M,78.25,83,160,175,190,190,140,147.5,152.5,152.5,160,-177.5,-177.5,160,502.5,グッドコンディション,Masters 1,2,SBD,Single-ply
對馬 宏,,1952,M,81.25,83,-160,160,170,170,145,150,152.5,152.5,165,175,-185,175,497.5,スパーパワーアサマトレーニングクラブ,Masters 3,2,SBD,Single-ply
新田 昌和,Masakazu Nitta,1962,M,87.4,93,290,300,305,305,165,175,-182.5,175,250,267.5,-280.5,267.5,747.5,フジモトジム,Masters 2,1,SBD,Single-ply
伊藤 禎浩,,1969,M,92,93,-260,-262.5,265,265,210,220,225,225,235,242.5,-245,242.5,732.5,個人,Masters 1,1,SBD,Single-ply
小川 光寿,,1971,M,92.05,93,245,265,272.5,272.5,190,207.5,217.5,217.5,220,235,-245,235,725,竹田運輸倉庫㈱,Masters 1,2,SBD,Single-ply
塩田 宗廣,,1977,M,89.6,93,260,-275,-277.5,260,170,175,-177.5,175,230,245,252.5,252.5,687.5,グッドコンディション,Masters 1,1,SBD,Single-ply
淺間 成敏,,1959,M,91.6,93,260,272.5,-280,272.5,180,-185,-185,180,220,230,235,235,687.5,スーパーパワーアサマトレーニングクラブ,Masters 2,2,SBD,Single-ply
大森 了,,1952,M,91,93,190,200,210,210,145,150,155,155,190,200,-223,200,565,小田原アリーナ,Masters 3,1,SBD,Single-ply
立花 浩二,Koji Tachibana,1966,M,101.5,105,200,230,235,235,150,157.5,160,160,240,255.5,275.5,275.5,670.5,パワーハウス,Masters 2,1,SBD,Single-ply
中島 諭正,,1964,M,100.2,105,230,240,250,250,180,-190,-200,180,-220,230,240,240,670,高岡ＴＣ,Masters 2,2,SBD,Single-ply
香西 和義,,1956,M,98.6,105,-190,190,202.5,202.5,125,132.5,135,135,185,201,211,211,548.5,エイブルスポーツクラブ岡山,Masters 3,1,SBD,Single-ply
南 茂樹,Shigeki Minami,1965,M,114.75,120,280,-290,290,290,230,235,240,240,220,230,235,235,765,MSM,Masters 2,1,SBD,Single-ply
辻見 直樹,,1964,M,118.1,120,280,-292.5,-292.5,280,225,235,-240.5,235,210,-220,-220,210,725,スーパーパワーアサマトレーニングクラブ,Masters 2,2,SBD,Single-ply
早川 琴果,Kotomi Hayakawa,1995,F,47,47,110,120,-130,120,82.5,85.5,91,91,105,115,-125,115,326,阪南大学,Juniors,1,SBD,Single-ply
植村 茉由,,1997,F,46.6,47,85,95,-100,95,40,45,-52.5,45,75,85,92.5,92.5,232.5,青山学院大学,Juniors,2,SBD,Single-ply
南 采沙,,1994,F,50.6,52,130,140,150,150,85,92.5,95,95,110,117.5,122.5,122.5,367.5,TXP,Juniors,1,SBD,Single-ply
藤浪 瑠麗,,1994,F,51,52,135,140,145,145,65,-70,70,70,125,132.5,137.5,137.5,352.5,パワーハウス,Juniors,2,SBD,Single-ply
伊東 咲子,,1996,F,51.25,52,120,130,135,135,60,65,67.5,67.5,125,140,-152.5,140,342.5,東京大学,Juniors,3,SBD,Single-ply
小林 展代,Nobuyo Kobayashi,1997,F,55.3,57,135,145,-152.5,145,75,80,82.5,82.5,110,120,122.5,122.5,350,TXP,Juniors,1,SBD,Single-ply
堤 彩夏,,1995,F,56.4,57,135,-142.5,142.5,142.5,60,-70,-70,60,110,125,-145.5,125,327.5,京都学園大学,Juniors,2,SBD,Single-ply
寺原 万留々,Maruru Terahara,1993,F,62.4,63,180,-190,-200,180,105,112.5,-120.5,112.5,160,-167.5,-167.5,160,452.5,個人,Juniors,1,SBD,Single-ply
窓場 加津沙,,1996,F,67.25,72,-190,190,-200,190,70,100,-110,100,160,175,-185,175,465,京都学園大学,Juniors,1,SBD,Single-ply
山口 夏南子,,1997,F,67.8,72,-130,130,145,145,-80,-80,-80,-80,130,145,-150,145,,東京農業大学,Juniors,DQ,SBD,Single-ply
新井 一真,,1996,M,52.6,53,170,-172.5,190,190,115,120,-125,120,175,190,195.5,195.5,505.5,東京農業大学,Juniors,1,SBD,Single-ply
森脇 滉人,,1995,M,52.1,53,-195,200,205,205,105,110,112.5,112.5,175,185,-195,185,502.5,岡山大学,Juniors,2,SBD,Single-ply
佐竹 優典,Yusuke Satake,1997,M,58.85,59,235,-245,245,245,140,150,157.5,157.5,215,230,-245.5,230,632.5,青山学院大学,Juniors,1,SBD,Single-ply
村田 元輝,Motoki Murata,1997,M,57.65,59,175,185,200,200,170,-187.5,-187.5,170,175,200,-210,200,570,KsGYM横浜,Juniors,2,SBD,Single-ply
寺門 隆太,,1993,M,59,59,170,-182.5,-195,170,120,127.5,-132.5,127.5,170,180,185,185,482.5,パワーハルクジム,Juniors,3,SBD,Single-ply
梶山 雄輝,,1996,M,58.8,59,190,-200,-200,190,110,-120,-120,110,160,167.5,-177.5,167.5,467.5,岡山大学,Juniors,4,SBD,Single-ply
木村 和正,,1995,M,58.65,59,-220,-220,220,220,-155,-155,-155,,205,215,225,225,,岡山大学,Juniors,DQ,SBD,Single-ply
鈴木 豪,Go Suzuki,1994,M,65.6,66,245,-252.5,252.5,252.5,175,182.5,187.5,187.5,250,260,270,270,710,ESQUATIR,Juniors,1,SBD,Single-ply
木内 陽介,Yosuke Kiuchi,1996,M,65.8,66,250,260,270,270,150,162.5,-170,162.5,250,265,-278,265,697.5,青山学院大学,Juniors,2,SBD,Single-ply
古清水 駿,,1993,M,66,66,185,200,215,215,120,127.5,-130,127.5,-225,225,-245,225,567.5,国際武道大学,Juniors,3,SBD,Single-ply
前川 知紀,,1994,M,73.05,74,-240,-240,240,240,170,175,180,180,210,-220,220,220,640,京都学園大学,Juniors,1,SBD,Single-ply
宇津木 啓,Hiroshi Utsugi,1997,M,73.4,74,235,245,250,250,135,142.5,147.5,147.5,212.5,222.5,-245,222.5,620,東洋大学,Juniors,2,SBD,Single-ply
瀬尾 雅也,,1997,M,70.45,74,225,235,-245,235,140,147.5,152.5,152.5,205,-215,215,215,602.5,首都大学東京,Juniors,3,SBD,Single-ply
石川 裕士,Hiroshi Ishikawa,1997,M,73.2,74,220,230,-240,230,150,-160,-160,150,180,200,-220,200,580,青山学院大学,Juniors,4,SBD,Single-ply
義友 雄輝,,1995,M,73.55,74,190,200,-210,200,-185,185,-203,185,185,-195,-202.5,185,570,岡山大学,Juniors,5,SBD,Single-ply
鈴木 喜稀,,1993,M,82.75,83,290,310,315.5,315.5,190,200,207.5,207.5,260,275,-290.5,275,798,小田原アリーナ,Juniors,1,SBD,Single-ply
土井原 健太,,1995,M,82.55,83,250,260,270,270,-210,-210,210,210,225,-235,-242.5,225,705,岡山大学,Juniors,2,SBD,Single-ply
逢野 嵩大,,1994,M,79.3,83,-250,-250,-250,,-245,-261.5,-261.5,,,,,,,阪南大学,Juniors,DQ,SBD,Single-ply
古川 潤,Jun Furukawa,1996,M,82,83,280,-300,-300,280,160,170,-177.5,170,-270,-270,-270,,,京都学園大学,Juniors,DQ,SBD,Single-ply
伊藤 壮志,,1996,M,92.5,93,235,245,250,250,-200,-200,200,200,200,212.5,222.5,222.5,672.5,北海学園大学,Juniors,1,SBD,Single-ply
髙島 皓介,,1997,M,85.4,93,240,250,260,260,155,160,-167.5,160,210,220,-225,220,640,青山学院大学,Juniors,2,SBD,Single-ply
堀口 耀介,Yosuke Horiguchi,1993,M,95.8,105,290,310,320,320,270,282.5,291,291,100,140,-207.5,140,751,TXP,Juniors,1,SBD,Single-ply
高野 遼太郎,,1996,M,104.15,105,275,-300,-300,275,150,160,-175,160,215,230,245,245,680,岡山大学,Juniors,2,SBD,Single-ply
佐野 誓建,Seiken Sano,1995,M,110.05,120,300,320,-340.5,320,190,207.5,210,210,280,292.5,-300.5,292.5,822.5,京都学園大学,Juniors,1,SBD,Single-ply
